%YAML 1.1
%TAG !u! tag:unity3d.com,2011:
--- !u!114 &11400000
MonoBehaviour:
  m_ObjectHideFlags: 0
  m_CorrespondingSourceObject: {fileID: 0}
  m_PrefabInstance: {fileID: 0}
  m_PrefabAsset: {fileID: 0}
  m_GameObject: {fileID: 0}
  m_Enabled: 1
  m_EditorHideFlags: 0
  m_Script: {fileID: 11500000, guid: 884f7db2c42f64ecaaa7068b32bcde88, type: 3}
  m_Name: Bed
  m_EditorClassIdentifier: 
  id: 0
  prefab: {fileID: 2189402258681937692, guid: b790efcb904e1ef45939937c770f0d96, type: 3}
  widthCells: 1
  heightCells: 2
  maximumInRoom: 4
  wallBehindMust: 1
  cornerBehindMust: 0
