%YAML 1.1
%TAG !u! tag:unity3d.com,2011:
--- !u!114 &11400000
MonoBehaviour:
  m_ObjectHideFlags: 0
  m_CorrespondingSourceObject: {fileID: 0}
  m_PrefabInstance: {fileID: 0}
  m_PrefabAsset: {fileID: 0}
  m_GameObject: {fileID: 0}
  m_Enabled: 1
  m_EditorHideFlags: 0
  m_Script: {fileID: 11500000, guid: 884f7db2c42f64ecaaa7068b32bcde88, type: 3}
  m_Name: New Furniture SO
  m_EditorClassIdentifier: 
  id: 0
  prefab: {fileID: 8069496387270994912, guid: 1b84de246839d456bbb9b7ad094757c4, type: 3}
  widthCells: 3
  heightCells: 3
  maximumInRoom: 1
  wallBehindMust: 0
  cornerBehindMust: 0
