%YAML 1.1
%TAG !u! tag:unity3d.com,2011:
--- !u!1045 &1
EditorBuildSettings:
  m_ObjectHideFlags: 0
  serializedVersion: 2
  m_Scenes:
  - enabled: 0
    path: 
    guid: 00000000000000000000000000000000
  - enabled: 1
    path: Assets/Scenes/MainMenuScene.unity
    guid: dab1b674ce8bc6f458d1de4bc2f2e390
  - enabled: 1
    path: Assets/Scenes/SampleScene.unity
    guid: 8fd0cb5c97a55294a9085a261b63d1ee
  m_configObjects: {}
