%YAML 1.1
%TAG !u! tag:unity3d.com,2011:
--- !u!114 &11400000
MonoBehaviour:
  m_ObjectHideFlags: 0
  m_CorrespondingSourceObject: {fileID: 0}
  m_PrefabInstance: {fileID: 0}
  m_PrefabAsset: {fileID: 0}
  m_GameObject: {fileID: 0}
  m_Enabled: 1
  m_EditorHideFlags: 0
  m_Script: {fileID: 11500000, guid: 884f7db2c42f64ecaaa7068b32bcde88, type: 3}
  m_Name: CornerCabinet
  m_EditorClassIdentifier: 
  id: 0
  prefab: {fileID: 341099719490837630, guid: 9ad93d524e9718d4fbecf1392ee2ddb9, type: 3}
  widthCells: 1
  heightCells: 1
  maximumInRoom: 10
  wallBehindMust: 0
  cornerBehindMust: 1
