%YAML 1.1
%TAG !u! tag:unity3d.com,2011:
--- !u!114 &11400000
MonoBehaviour:
  m_ObjectHideFlags: 0
  m_CorrespondingSourceObject: {fileID: 0}
  m_PrefabInstance: {fileID: 0}
  m_PrefabAsset: {fileID: 0}
  m_GameObject: {fileID: 0}
  m_Enabled: 1
  m_EditorHideFlags: 0
  m_Script: {fileID: 11500000, guid: 884f7db2c42f64ecaaa7068b32bcde88, type: 3}
  m_Name: WashingMachine
  m_EditorClassIdentifier: 
  id: 6
  prefab: {fileID: 6025985838952418674, guid: 8c32490b4470de7448ac6d6d272b0427, type: 3}
  widthCells: 1
  heightCells: 1
  maximumInRoom: 1
  wallBehindMust: 1
  cornerBehindMust: 0
