%YAML 1.1
%TAG !u! tag:unity3d.com,2011:
--- !u!114 &11400000
MonoBehaviour:
  m_ObjectHideFlags: 0
  m_CorrespondingSourceObject: {fileID: 0}
  m_PrefabInstance: {fileID: 0}
  m_PrefabAsset: {fileID: 0}
  m_GameObject: {fileID: 0}
  m_Enabled: 1
  m_EditorHideFlags: 0
  m_Script: {fileID: 11500000, guid: 884f7db2c42f64ecaaa7068b32bcde88, type: 3}
  m_Name: WaterCooler
  m_EditorClassIdentifier: 
  id: 7
  prefab: {fileID: 4479314054719015537, guid: fb4223d1fd3d7574b8e8fcba1d331c76, type: 3}
  widthCells: 1
  heightCells: 1
  maximumInRoom: 2
  wallBehindMust: 1
  cornerBehindMust: 0
